{
  /* Visit https://firebase.google.com/docs/database/security to learn more about security rules. */
  "rules": {
    "users": {
      "$uid": {
        ".read": "$uid === auth.uid",
        ".write": false,
        "settings": {
          ".write": "$uid === auth.uid"
        }
      }
    }
  }
}
