<svg width="200" height="300" xmlns="http://www.w3.org/2000/svg">
 <!-- Created with Method Draw - http://github.com/duopixel/Method-Draw/ -->
 <g>
  <title>Layer 1</title>
  <rect stroke="#000" rx="10" id="svg_3" height="300" width="200" y="0" x="0" stroke-width="1" fill="#fff"/>
 </g>
</svg>
